…
To simulate the trajectory of 100 patients subject to a capacity of 5
(see the example of a model specification for the [*4T Sustainability
Microrandomized
Trial*](https://vsritter.github.io/MRThreshold/articles/microrandomization_setup.html))

``` r
library(MRThreshold)

RNGkind("L'Ecuyer-CMRG")
set.seed(365342)

sim_list <- sim_microrand(N = 100, capacity = 5)
sim_list
#> $lmer_reg
#> # A tibble: 43 × 13
#>    sample_size set       b3 up_to_time n_clust n_obs effect term     estimate
#>          <dbl> <chr>  <dbl>      <dbl>   <int> <int> <chr>  <chr>       <dbl>
#>  1         100 A1    0.005          16      14    19 fixed  time:trt 0.00815 
#>  2         100 A2    0.0025         16      15    21 fixed  time:trt 0.000673
#>  3         100 A3    0.001          16      14    22 fixed  time:trt 0.000123
#>  4         100 A4    0.0005         16      10    19 fixed  time:trt 0.00214 
#>  5         100 A5    0.0001         16      11    19 fixed  time:trt 0.00211 
#>  6         100 B5    0.0001         16       6     9 fixed  time:trt 0.00497 
#>  7         100 C1    0              16      10    14 fixed  time:trt 0.00373 
#>  8         100 A1    0.005          24      41    72 fixed  time:trt 0.00600 
#>  9         100 A2    0.0025         24      47    80 fixed  time:trt 0.00298 
#> 10         100 A3    0.001          24      42    85 fixed  time:trt 0.000937
#> # ℹ 33 more rows
#> # ℹ 4 more variables: std.error <dbl>, statistic <dbl>, df <dbl>, p.value <dbl>
#> 
#> $summary
#> # A tibble: 345 × 6
#>    sample_size set    time Addon Default atRisk
#>          <dbl> <chr> <dbl> <dbl>   <dbl>  <dbl>
#>  1         100 A1        6     1       0      1
#>  2         100 A1       10     1       1      2
#>  3         100 A1       11     0       2      2
#>  4         100 A1       12     0       1      1
#>  5         100 A1       13     1       2      3
#>  6         100 A1       14     1       1      2
#>  7         100 A1       15     5       2      7
#>  8         100 A1       16     1       0      1
#>  9         100 A1       17     3       2      5
#> 10         100 A1       18     2       2      4
#> # ℹ 335 more rows
```
…
dt_res
#> # A tibble: 43 × 10
#>    sample_size set   up_to_time n_obs n_clust      bias empirical_stderr     mse
#>          <dbl> <chr>      <dbl> <dbl>   <dbl>     <dbl>            <dbl>   <dbl>
#>  1         100 A1            16    19      14   3.15e-3                0 9.93e-6
#>  2         100 A1            24    72      41   9.96e-4                0 9.92e-7
#>  3         100 A1            32   166      76   3.43e-4                0 1.18e-7
#>  4         100 A1            40   281      94   1.46e-4                0 2.13e-8
#>  5         100 A2            16    21      15  -1.83e-3                0 3.34e-6
#>  6         100 A2            24    80      47   4.84e-4                0 2.34e-7
#>  7         100 A2            32   195      81  -5.56e-4                0 3.09e-7
#>  8         100 A2            40   325      93  -1.84e-4                0 3.38e-8
#>  9         100 A3            16    22      14  -8.77e-4                0 7.70e-7
#> 10         100 A3            24    85      42  -6.35e-5                0 4.03e-9
#> # ℹ 33 more rows
#> # ℹ 2 more variables: cover <dbl>, prop_rej <dbl>
```
