test • MRThreshold
…
    Skip to contents

      test

      Source: vignettes/test.Rmd
      test.Rmd

library(MRThreshold)

set.seed(365342)
sim_list <- sim_4t_microrand(N = 100, capacity = 5)

sim_list
#> $lmer_reg
#> # A tibble: 43 × 13
#>    sample_size set       b3 up_to_time n_clust n_obs effect term     estimate
#>          <dbl> <chr>  <dbl>      <dbl>   <int> <int> <chr>  <chr>       <dbl>
#>  1         100 A1    0.005          16      16    19 fixed  time:trt  0.00656
#>  2         100 A2    0.0025         16      16    26 fixed  time:trt  0.00497
#>  3         100 A3    0.001          16      13    24 fixed  time:trt  0.00171
#>  4         100 A4    0.0005         16      10    19 fixed  time:trt  0.00213
#>  5         100 A5    0.0001         16      11    18 fixed  time:trt  0.00537
#>  6         100 B4    0.0005         16       7     8 fixed  time:trt  0.0369 
#>  7         100 C1    0              16      11    17 fixed  time:trt  0.00182
#>  8         100 A1    0.005          24      42    75 fixed  time:trt  0.00643
#>  9         100 A2    0.0025         24      45    86 fixed  time:trt  0.00262
#> 10         100 A3    0.001          24      35    76 fixed  time:trt  0.00188
#> # ℹ 33 more rows
#> # ℹ 4 more variables: std.error <dbl>, statistic <dbl>, df <dbl>, p.value <dbl>
#> 
#> $summary
#> # A tibble: 348 × 6
#>    sample_size set    time Addon Default atRisk
#>          <dbl> <chr> <dbl> <dbl>   <dbl>  <dbl>
#>  1         100 A1        9     2       0      2
#>  2         100 A1       10     0       1      1
#>  3         100 A1       11     2       1      3
#>  4         100 A1       13     1       2      3
#>  5         100 A1       14     1       1      2
#>  6         100 A1       15     2       3      5
#>  7         100 A1       16     2       1      3
#>  8         100 A1       17     3       1      4
#>  9         100 A1       18     2       2      4
#> 10         100 A1       19     4       8     12
#> # ℹ 338 more rows
…
